41 Données longitudinales – guide-R
…
Voyons maintenant à quoi ressemble notre fichier long :

dlong

# A tibble: 11,000 × 5
   id_ind   age slog            smat            nenf       
    <int> <int> <fct>           <fct>           <fct>      
 1      1    14 non indépendant jamais en union sans enfant
 2      1    15 non indépendant jamais en union sans enfant
 3      1    16 non indépendant jamais en union sans enfant
 4      1    17 non indépendant jamais en union sans enfant
 5      1    18 non indépendant jamais en union sans enfant
 6      1    19 non indépendant jamais en union sans enfant
 7      1    20 non indépendant jamais en union sans enfant
 8      1    21 non indépendant jamais en union sans enfant
 9      1    22 non indépendant jamais en union sans enfant
10      1    23 non indépendant jamais en union sans enfant
# ℹ 10,990 more rows

Le passage d’un format long à un format périodique est souvent un peu plus complexe, car cela nécessite d’identifier les successions de lignes identiques puis de les regrouper en retenant l’âge du début et l’âge de la fin de la période. Dans ce cadre, les fonctions guideR::cumdifferent() et guideR::num_cycle() que nous avons abordé dans le chapitre sur les fonctions à fenêtre peuvent être utiles (cf. Section 39.4). Heureusement, guideR, le package compagnon de guide-R, propose une fonction guideR::long_to_periods() justement dédiée à la conversion d’un format long à un format périodique.

La première chose est de bien définir les variables à prendre en compte pour l’identification des périodes. En effet, cela impactera sur le nombre de périodes obtenues. Si l’on se contente d’indiquer un identifiant individuel et une variable temporelle, alors le résultat n’inclura qu’une période par individu en renverra le premier âge et le dernier âge connu.

library(guideR)
dlong |> 
  long_to_periods(
    id = id_ind,
    start = age
  )

# A tibble: 500 × 3
# Groups:   id_ind [500]
   id_ind   age .stop
    <int> <int> <int>
 1      1    14    35
 2      2    14    35
 3      3    14    35
 4      4    14    35
 5      5    14    35
 6      6    14    35
 7      7    14    35
 8      8    14    35
 9      9    14    35
10     10    14    35
# ℹ 490 more rows

Si je passe la variable slog au paramètre by, alors une nouvelle période sera créée à chaque fois que le statut résidentiel change.

dlong |> 
  long_to_periods(
    id = id_ind,
    start = age,
    by = slog
  )

# A tibble: 1,131 × 4
# Groups:   id_ind [500]
   id_ind   age .stop slog                
    <int> <int> <int> <fct>               
 1      1    14    26 non indépendant     
 2      1    26    35 logement indépendant
 3      2    14    22 non indépendant     
 4      2    22    35 logement indépendant
 5      3    14    25 non indépendant     
 6      3    25    35 logement indépendant
 7      4    14    22 non indépendant     
 8      4    22    35 logement indépendant
 9      5    14    20 non indépendant     
10      5    20    35 logement indépendant
# ℹ 1,121 more rows
…
dperiods <-
  dlong |> 
  long_to_periods(
    id = id_ind,
    start = age,
    by = c(slog, smat, nenf)
  ) |> 
  rename(
    debut = age,
    fin = .stop
  )
dperiods

# A tibble: 2,203 × 6
# Groups:   id_ind [500]
   id_ind debut   fin slog                 smat              nenf       
    <int> <int> <int> <fct>                <fct>             <fct>      
 1      1    14    26 non indépendant      jamais en union   sans enfant
 2      1    26    31 logement indépendant union cohabitante sans enfant
 3      1    31    35 logement indépendant marié·e           1 enfant   
 4      2    14    20 non indépendant      jamais en union   sans enfant
 5      2    20    21 non indépendant      marié·e           sans enfant
 6      2    21    22 non indépendant      marié·e           1 enfant   
 7      2    22    29 logement indépendant marié·e           1 enfant   
 8      2    29    35 logement indépendant marié·e           2 enfants  
 9      3    14    25 non indépendant      jamais en union   sans enfant
10      3    25    28 logement indépendant marié·e           sans enfant
# ℹ 2,193 more rows

Pour repasser d’un format long à un format large, on aura recours à tidyr::pivot_wider() et pour le passage d’un format périodique à un format long à guideR::periods_to_long().

dlong |> 
  pivot_wider(
    id_cols = id_ind,
    names_from = age,
    names_prefix = "log_",
    values_from = slog
  )

# A tibble: 500 × 23
   id_ind log_14  log_15 log_16 log_17 log_18 log_19 log_20 log_21 log_22 log_23
    <int> <fct>   <fct>  <fct>  <fct>  <fct>  <fct>  <fct>  <fct>  <fct>  <fct> 
 1      1 non in… non i… non i… non i… non i… non i… non i… non i… non i… non i…
 2      2 non in… non i… non i… non i… non i… non i… non i… non i… logem… logem…
 3      3 non in… non i… non i… non i… non i… non i… non i… non i… non i… non i…
 4      4 non in… non i… non i… non i… non i… non i… non i… non i… logem… logem…
 5      5 non in… non i… non i… non i… non i… non i… logem… logem… logem… logem…
 6      6 non in… non i… non i… non i… non i… logem… logem… non i… non i… logem…
 7      7 non in… non i… non i… non i… non i… non i… non i… non i… non i… non i…
 8      8 non in… non i… non i… non i… non i… non i… non i… non i… non i… logem…
 9      9 non in… non i… non i… logem… logem… logem… non i… non i… logem… logem…
10     10 non in… non i… non i… non i… non i… non i… non i… non i… non i… non i…
# ℹ 490 more rows
# ℹ 12 more variables: log_24 <fct>, log_25 <fct>, log_26 <fct>, log_27 <fct>,
#   log_28 <fct>, log_29 <fct>, log_30 <fct>, log_31 <fct>, log_32 <fct>,
#   log_33 <fct>, log_34 <fct>, log_35 <fct>

dperiods |> 
  periods_to_long(
    start = debut,
    stop = fin,
    time_step = 1,
    time_name = "age"
  )

# A tibble: 12,703 × 5
# Groups:   id_ind [500]
   id_ind   age slog            smat            nenf       
    <int> <dbl> <fct>           <fct>           <fct>      
 1      1    14 non indépendant jamais en union sans enfant
 2      1    15 non indépendant jamais en union sans enfant
 3      1    16 non indépendant jamais en union sans enfant
 4      1    17 non indépendant jamais en union sans enfant
 5      1    18 non indépendant jamais en union sans enfant
 6      1    19 non indépendant jamais en union sans enfant
 7      1    20 non indépendant jamais en union sans enfant
 8      1    21 non indépendant jamais en union sans enfant
 9      1    22 non indépendant jamais en union sans enfant
10      1    23 non indépendant jamais en union sans enfant
# ℹ 12,693 more rows
…
Nous pouvons nous demander s’il y a un lien entre l’entrée en union et le statut résidentiel.

Première étape, calculons, pour chaque individu, l’âge de première entrée en union. Il s’agit donc du plus petit âge ou le statut matrimonial est différent de jamais en union. Cela est relativement facile avec un format long et les verbes de dplyr.

age_1u <-
  dlong |> 
  filter(smat != "jamais en union") |> 
  group_by(id_ind) |> 
  summarise(age_1u = min(age)) |> 
  set_variable_labels(
    age_1u = "Âge à la première union"
  )
age_1u

# A tibble: 459 × 2
   id_ind age_1u
    <int>  <int>
 1      1     26
 2      2     20
 3      3     25
 4      4     22
 5      5     20
 6      6     21
 7      7     33
 8      8     21
 9      9     25
10     11     33
# ℹ 449 more rows
…
