guide-R - 36 Transformations multiples
…
36.1.4 pick()

Pour certains verbes, comme dplyr::group_by(), dplyr::count() et dplyr::distinct(), il n’est pas nécessaire de fournir une fonction de résumé, mais il peut être utile de pouvoir sélectionner dynamiquement un ensemble de colonnes.

Dans ce cas, nous recommandons d’utiliser le complément de dplyr::across(), dplyr::pick(), qui fonctionne comme across() mais n’applique aucune fonction et renvoie à la place un cadre de données contenant les colonnes sélectionnées.

starwars |> 
  distinct(pick(contains("color")))

# A tibble: 67 × 3
   hair_color    skin_color  eye_color
   <chr>         <chr>       <chr>    
 1 blond         fair        blue     
 2 <NA>          gold        yellow   
 3 <NA>          white, blue red      
 4 none          white       yellow   
 5 brown         light       brown    
 6 brown, grey   light       blue     
 7 brown         light       blue     
 8 <NA>          white, red  red      
 9 black         light       brown    
10 auburn, white fair        blue-gray
# ℹ 57 more rows

starwars |> 
  count(pick(contains("color")), sort = TRUE)

# A tibble: 67 × 4
   hair_color skin_color eye_color     n
   <chr>      <chr>      <chr>     <int>
 1 brown      light      brown         6
 2 brown      fair       blue          4
 3 none       grey       black         4
 4 black      dark       brown         3
 5 blond      fair       blue          3
 6 black      fair       brown         2
 7 black      tan        brown         2
 8 black      yellow     blue          2
 9 brown      fair       brown         2
10 none       white      yellow        2
# ℹ 57 more rows

dplyr::across() ne fonctionne pas avec dplyr::select() ou dplyr::rename() parce qu’ils utilisent déjà une syntaxe de sélection dynamique. Si vous voulez transformer les noms de colonnes avec une fonction, vous pouvez utiliser dplyr::rename_with().

36.2 Sélection de lignes à partir d’une sélection de colonnes

Nous ne pouvons pas utiliser directement across() dans dplyr::filter() car nous avons besoin d’une étape supplémentaire pour combiner les résultats. À cette fin, filter() dispose de deux fonctions complémentaires spéciales :

dplyr::if_any() conserve les lignes pour lesquelles le prédicat est vrai pour au moins une colonne sélectionnée :

starwars |> 
  filter(if_any(everything(), ~ !is.na(.x)))

# A tibble: 87 × 14
   name     height  mass hair_color skin_color eye_color birth_year sex   gender
   <chr>     <int> <dbl> <chr>      <chr>      <chr>          <dbl> <chr> <chr> 
 1 Luke Sk…    172    77 blond      fair       blue            19   male  mascu…
 2 C-3PO       167    75 <NA>       gold       yellow         112   none  mascu…
 3 R2-D2        96    32 <NA>       white, bl… red             33   none  mascu…
 4 Darth V…    202   136 none       white      yellow          41.9 male  mascu…
 5 Leia Or…    150    49 brown      light      brown           19   fema… femin…
 6 Owen La…    178   120 brown, gr… light      blue            52   male  mascu…
 7 Beru Wh…    165    75 brown      light      blue            47   fema… femin…
 8 R5-D4        97    32 <NA>       white, red red             NA   none  mascu…
 9 Biggs D…    183    84 black      light      brown           24   male  mascu…
10 Obi-Wan…    182    77 auburn, w… fair       blue-gray       57   male  mascu…
# ℹ 77 more rows
# ℹ 5 more variables: homeworld <chr>, species <chr>, films <list>,
#   vehicles <list>, starships <list>

dplyr::if_all() sélectionne les lignes pour lesquelles le prédicat est vrai pour toutes les colonnes sélectionnées :

starwars |>  
  filter(if_all(everything(), ~ !is.na(.x)))

# A tibble: 29 × 14
   name     height  mass hair_color skin_color eye_color birth_year sex   gender
   <chr>     <int> <dbl> <chr>      <chr>      <chr>          <dbl> <chr> <chr> 
 1 Luke Sk…    172    77 blond      fair       blue            19   male  mascu…
 2 Darth V…    202   136 none       white      yellow          41.9 male  mascu…
 3 Leia Or…    150    49 brown      light      brown           19   fema… femin…
 4 Owen La…    178   120 brown, gr… light      blue            52   male  mascu…
 5 Beru Wh…    165    75 brown      light      blue            47   fema… femin…
 6 Biggs D…    183    84 black      light      brown           24   male  mascu…
 7 Obi-Wan…    182    77 auburn, w… fair       blue-gray       57   male  mascu…
 8 Anakin …    188    84 blond      fair       blue            41.9 male  mascu…
 9 Chewbac…    228   112 brown      unknown    blue           200   male  mascu…
10 Han Solo    180    80 brown      fair       brown           29   male  mascu…
# ℹ 19 more rows
# ℹ 5 more variables: homeworld <chr>, species <chr>, films <list>,
#   vehicles <list>, starships <list>
…
