guide-R - 38 Fonctions à fenêtre
…
  Sepal.Length Sepal.Width Petal.Length Petal.Width Species
1          5.8         4.0          1.2         0.2  setosa
2          5.7         4.4          1.5         0.4  setosa
3          5.7         3.8          1.7         0.3  setosa
4          5.5         4.2          1.4         0.2  setosa
5          5.5         3.5          1.3         0.2  setosa
6          5.4         3.9          1.7         0.4  setosa

Par défaut, arrange() ne tient pas compte des variables de groupement quand elles existent.

iris |> 
  group_by(Species) |> 
  arrange(desc(Sepal.Length))

# A tibble: 150 × 5
# Groups:   Species [3]
   Sepal.Length Sepal.Width Petal.Length Petal.Width Species  
          <dbl>       <dbl>        <dbl>       <dbl> <fct>    
 1          7.9         3.8          6.4         2   virginica
 2          7.7         3.8          6.7         2.2 virginica
 3          7.7         2.6          6.9         2.3 virginica
 4          7.7         2.8          6.7         2   virginica
 5          7.7         3            6.1         2.3 virginica
 6          7.6         3            6.6         2.1 virginica
 7          7.4         2.8          6.1         1.9 virginica
 8          7.3         2.9          6.3         1.8 virginica
 9          7.2         3.6          6.1         2.5 virginica
10          7.2         3.2          6           1.8 virginica
# ℹ 140 more rows

Pour inclure les variables de groupement dans le tri, il faut préciser .by_group = TRUE.

iris |> 
  group_by(Species) |> 
  arrange(desc(Sepal.Length), .by_group = TRUE)

# A tibble: 150 × 5
# Groups:   Species [3]
   Sepal.Length Sepal.Width Petal.Length Petal.Width Species
          <dbl>       <dbl>        <dbl>       <dbl> <fct>  
 1          5.8         4            1.2         0.2 setosa 
 2          5.7         4.4          1.5         0.4 setosa 
 3          5.7         3.8          1.7         0.3 setosa 
 4          5.5         4.2          1.4         0.2 setosa 
 5          5.5         3.5          1.3         0.2 setosa 
 6          5.4         3.9          1.7         0.4 setosa 
 7          5.4         3.7          1.5         0.2 setosa 
 8          5.4         3.9          1.3         0.4 setosa 
 9          5.4         3.4          1.7         0.2 setosa 
10          5.4         3.4          1.5         0.4 setosa 
# ℹ 140 more rows
…
