guide-R - 8 dplyr
…
Normalement trois objets correspondant aux trois tables ont dû apparaître dans votre environnement.

8.1 Opérations sur les lignes

8.1.1 filter()

dplyr::filter() sélectionne des lignes d’un tableau de données selon une condition. On lui passe en paramètre un test, et seules les lignes pour lesquelles ce test renvoit TRUE (vrai) sont conservées2.
2 Si le test renvoie faux (FALSE) ou une valeur manquante (NA), les lignes correspondantes ne seront donc pas sélectionnées.

Par exemple, si on veut sélectionner les vols du mois de janvier, on peut filtrer sur la variable month de la manière suivante :

filter(flights, month == 1)

# A tibble: 27,004 × 19
    year month   day dep_time sched_dep_time dep_delay arr_time sched_arr_time
   <int> <int> <int>    <int>          <int>     <dbl>    <int>          <int>
 1  2013     1     1      517            515         2      830            819
 2  2013     1     1      533            529         4      850            830
 3  2013     1     1      542            540         2      923            850
 4  2013     1     1      544            545        -1     1004           1022
 5  2013     1     1      554            600        -6      812            837
 6  2013     1     1      554            558        -4      740            728
 7  2013     1     1      555            600        -5      913            854
 8  2013     1     1      557            600        -3      709            723
 9  2013     1     1      557            600        -3      838            846
10  2013     1     1      558            600        -2      753            745
# ℹ 26,994 more rows
# ℹ 11 more variables: arr_delay <dbl>, carrier <chr>, flight <int>,
#   tailnum <chr>, origin <chr>, dest <chr>, air_time <dbl>, distance <dbl>,
#   hour <dbl>, minute <dbl>, time_hour <dttm>

Cela peut s’écrire plus simplement avec un pipe :

flights |> filter(month == 1)

# A tibble: 27,004 × 19
    year month   day dep_time sched_dep_time dep_delay arr_time sched_arr_time
   <int> <int> <int>    <int>          <int>     <dbl>    <int>          <int>
 1  2013     1     1      517            515         2      830            819
 2  2013     1     1      533            529         4      850            830
 3  2013     1     1      542            540         2      923            850
 4  2013     1     1      544            545        -1     1004           1022
 5  2013     1     1      554            600        -6      812            837
 6  2013     1     1      554            558        -4      740            728
 7  2013     1     1      555            600        -5      913            854
 8  2013     1     1      557            600        -3      709            723
 9  2013     1     1      557            600        -3      838            846
10  2013     1     1      558            600        -2      753            745
# ℹ 26,994 more rows
# ℹ 11 more variables: arr_delay <dbl>, carrier <chr>, flight <int>,
#   tailnum <chr>, origin <chr>, dest <chr>, air_time <dbl>, distance <dbl>,
#   hour <dbl>, minute <dbl>, time_hour <dttm>

Si l’on veut uniquement les vols avec un retard au départ (variable dep_delay) compris entre 10 et 15 minutes :

flights |> 
  filter(dep_delay >= 10 & dep_delay <= 15)

# A tibble: 14,919 × 19
    year month   day dep_time sched_dep_time dep_delay arr_time sched_arr_time
   <int> <int> <int>    <int>          <int>     <dbl>    <int>          <int>
 1  2013     1     1      611            600        11      945            931
 2  2013     1     1      623            610        13      920            915
 3  2013     1     1      743            730        13     1107           1100
 4  2013     1     1      743            730        13     1059           1056
 5  2013     1     1      851            840        11     1215           1206
 6  2013     1     1      912            900        12     1241           1220
 7  2013     1     1      914            900        14     1058           1043
 8  2013     1     1      920            905        15     1039           1025
 9  2013     1     1     1011           1001        10     1133           1128
10  2013     1     1     1112           1100        12     1440           1438
# ℹ 14,909 more rows
# ℹ 11 more variables: arr_delay <dbl>, carrier <chr>, flight <int>,
#   tailnum <chr>, origin <chr>, dest <chr>, air_time <dbl>, distance <dbl>,
#   hour <dbl>, minute <dbl>, time_hour <dttm>

Si l’on passe plusieurs arguments à dplyr::filter(), celui-ci rajoute automatiquement une condition ET. La ligne ci-dessus peut donc également être écrite de la manière suivante, avec le même résultat :

flights |> 
  filter(dep_delay >= 10, dep_delay <= 15)

Enfin, on peut également placer des fonctions dans les tests, qui nous permettent par exemple de sélectionner les vols avec la plus grande distance :

flights |> 
  filter(distance == max(distance))

# A tibble: 342 × 19
    year month   day dep_time sched_dep_time dep_delay arr_time sched_arr_time
   <int> <int> <int>    <int>          <int>     <dbl>    <int>          <int>
 1  2013     1     1      857            900        -3     1516           1530
 2  2013     1     2      909            900         9     1525           1530
 3  2013     1     3      914            900        14     1504           1530
 4  2013     1     4      900            900         0     1516           1530
 5  2013     1     5      858            900        -2     1519           1530
 6  2013     1     6     1019            900        79     1558           1530
 7  2013     1     7     1042            900       102     1620           1530
 8  2013     1     8      901            900         1     1504           1530
 9  2013     1     9      641            900      1301     1242           1530
10  2013     1    10      859            900        -1     1449           1530
# ℹ 332 more rows
# ℹ 11 more variables: arr_delay <dbl>, carrier <chr>, flight <int>,
#   tailnum <chr>, origin <chr>, dest <chr>, air_time <dbl>, distance <dbl>,
#   hour <dbl>, minute <dbl>, time_hour <dttm>

Évaluation contextuelle

Il est important de noter que dplyr procède à une évaluation contextuelle des expressions qui lui sont passées. Ainsi, on peut indiquer directement le nom d’une variable et dplyr l’interprétera dans le contexte du tableau de données, c’est-à-dire regardera s’il existe une colonne portant ce nom dans le tableau.

Dans l’expression flights |> filter(month == 1), month est interprété comme la colonne month du tableau flights, à savoir flights$month.

Il est également possible d’indiquer des objets extérieurs au tableau :

m <- 2
flights |> 
  filter(month == m)

# A tibble: 24,951 × 19
    year month   day dep_time sched_dep_time dep_delay arr_time sched_arr_time
   <int> <int> <int>    <int>          <int>     <dbl>    <int>          <int>
 1  2013     2     1      456            500        -4      652            648
 2  2013     2     1      520            525        -5      816            820
 3  2013     2     1      527            530        -3      837            829
 4  2013     2     1      532            540        -8     1007           1017
 5  2013     2     1      540            540         0      859            850
 6  2013     2     1      552            600        -8      714            715
 7  2013     2     1      552            600        -8      919            910
 8  2013     2     1      552            600        -8      655            709
 9  2013     2     1      553            600        -7      833            815
10  2013     2     1      553            600        -7      821            825
# ℹ 24,941 more rows
# ℹ 11 more variables: arr_delay <dbl>, carrier <chr>, flight <int>,
#   tailnum <chr>, origin <chr>, dest <chr>, air_time <dbl>, distance <dbl>,
#   hour <dbl>, minute <dbl>, time_hour <dttm>

Cela fonctionne car il n’y a pas de colonne m dans flights. Dès lors, dplyr regarde s’il existe un objet m dans l’environnement de travail.

Par contre, si une colonne existe dans le tableau, elle aura priorité sur les objets du même nom dans l’environnement. Dans l’exemple ci-dessous, le résultat obtenu n’est pas celui voulu. Il est interprété comme sélectionner toutes les lignes où la colonne mois est égale à elle-même et donc cela sélectionne toutes les lignes du tableau.

month <- 3
flights |> 
  filter(month == month)

# A tibble: 336,776 × 19
    year month   day dep_time sched_dep_time dep_delay arr_time sched_arr_time
   <int> <int> <int>    <int>          <int>     <dbl>    <int>          <int>
 1  2013     1     1      517            515         2      830            819
 2  2013     1     1      533            529         4      850            830
 3  2013     1     1      542            540         2      923            850
 4  2013     1     1      544            545        -1     1004           1022
 5  2013     1     1      554            600        -6      812            837
 6  2013     1     1      554            558        -4      740            728
 7  2013     1     1      555            600        -5      913            854
 8  2013     1     1      557            600        -3      709            723
 9  2013     1     1      557            600        -3      838            846
10  2013     1     1      558            600        -2      753            745
# ℹ 336,766 more rows
# ℹ 11 more variables: arr_delay <dbl>, carrier <chr>, flight <int>,
#   tailnum <chr>, origin <chr>, dest <chr>, air_time <dbl>, distance <dbl>,
#   hour <dbl>, minute <dbl>, time_hour <dttm>

Afin de distinguer ce qui correspond à une colonne du tableau et à un objet de l’environnement, on pourra avoir recours à .data et .env (voir help(".env", package = "rlang")).

month <- 3
flights |> 
  filter(.data$month == .env$month)

# A tibble: 28,834 × 19
    year month   day dep_time sched_dep_time dep_delay arr_time sched_arr_time
   <int> <int> <int>    <int>          <int>     <dbl>    <int>          <int>
 1  2013     3     1        4           2159       125      318             56
 2  2013     3     1       50           2358        52      526            438
 3  2013     3     1      117           2245       152      223           2354
 4  2013     3     1      454            500        -6      633            648
 5  2013     3     1      505            515       -10      746            810
 6  2013     3     1      521            530        -9      813            827
 7  2013     3     1      537            540        -3      856            850
 8  2013     3     1      541            545        -4     1014           1023
 9  2013     3     1      549            600       -11      639            703
10  2013     3     1      550            600       -10      747            801
# ℹ 28,824 more rows
# ℹ 11 more variables: arr_delay <dbl>, carrier <chr>, flight <int>,
#   tailnum <chr>, origin <chr>, dest <chr>, air_time <dbl>, distance <dbl>,
#   hour <dbl>, minute <dbl>, time_hour <dttm>
…
8.1.3 arrange()

dplyr::arrange() réordonne les lignes d’un tableau selon une ou plusieurs colonnes.

Ainsi, si l’on veut trier le tableau flights selon le retard au départ, dans l’ordre croissant :

flights |> 
  arrange(dep_delay)

# A tibble: 336,776 × 19
    year month   day dep_time sched_dep_time dep_delay arr_time sched_arr_time
   <int> <int> <int>    <int>          <int>     <dbl>    <int>          <int>
 1  2013    12     7     2040           2123       -43       40           2352
 2  2013     2     3     2022           2055       -33     2240           2338
 3  2013    11    10     1408           1440       -32     1549           1559
 4  2013     1    11     1900           1930       -30     2233           2243
 5  2013     1    29     1703           1730       -27     1947           1957
 6  2013     8     9      729            755       -26     1002            955
 7  2013    10    23     1907           1932       -25     2143           2143
 8  2013     3    30     2030           2055       -25     2213           2250
 9  2013     3     2     1431           1455       -24     1601           1631
10  2013     5     5      934            958       -24     1225           1309
# ℹ 336,766 more rows
# ℹ 11 more variables: arr_delay <dbl>, carrier <chr>, flight <int>,
#   tailnum <chr>, origin <chr>, dest <chr>, air_time <dbl>, distance <dbl>,
#   hour <dbl>, minute <dbl>, time_hour <dttm>

On peut trier selon plusieurs colonnes. Par exemple selon le mois, puis selon le retard au départ :

flights |> 
  arrange(month, dep_delay)

# A tibble: 336,776 × 19
    year month   day dep_time sched_dep_time dep_delay arr_time sched_arr_time
   <int> <int> <int>    <int>          <int>     <dbl>    <int>          <int>
 1  2013     1    11     1900           1930       -30     2233           2243
 2  2013     1    29     1703           1730       -27     1947           1957
 3  2013     1    12     1354           1416       -22     1606           1650
 4  2013     1    21     2137           2159       -22     2232           2316
 5  2013     1    20      704            725       -21     1025           1035
 6  2013     1    12     2050           2110       -20     2310           2355
 7  2013     1    12     2134           2154       -20        4             50
 8  2013     1    14     2050           2110       -20     2329           2355
 9  2013     1     4     2140           2159       -19     2241           2316
10  2013     1    11     1947           2005       -18     2209           2230
# ℹ 336,766 more rows
# ℹ 11 more variables: arr_delay <dbl>, carrier <chr>, flight <int>,
#   tailnum <chr>, origin <chr>, dest <chr>, air_time <dbl>, distance <dbl>,
#   hour <dbl>, minute <dbl>, time_hour <dttm>

Si l’on veut trier selon une colonne par ordre décroissant, on lui applique la fonction dplyr::desc() :

flights |> 
  arrange(desc(dep_delay))

# A tibble: 336,776 × 19
    year month   day dep_time sched_dep_time dep_delay arr_time sched_arr_time
   <int> <int> <int>    <int>          <int>     <dbl>    <int>          <int>
 1  2013     1     9      641            900      1301     1242           1530
 2  2013     6    15     1432           1935      1137     1607           2120
 3  2013     1    10     1121           1635      1126     1239           1810
 4  2013     9    20     1139           1845      1014     1457           2210
 5  2013     7    22      845           1600      1005     1044           1815
 6  2013     4    10     1100           1900       960     1342           2211
 7  2013     3    17     2321            810       911      135           1020
 8  2013     6    27      959           1900       899     1236           2226
 9  2013     7    22     2257            759       898      121           1026
10  2013    12     5      756           1700       896     1058           2020
# ℹ 336,766 more rows
# ℹ 11 more variables: arr_delay <dbl>, carrier <chr>, flight <int>,
#   tailnum <chr>, origin <chr>, dest <chr>, air_time <dbl>, distance <dbl>,
#   hour <dbl>, minute <dbl>, time_hour <dttm>
…
# A tibble: 5 × 8
  faa   name                  lat    lon   alt    tz dst   tzone              
  <chr> <chr>               <dbl>  <dbl> <dbl> <dbl> <chr> <chr>              
1 SEA   Seattle Tacoma Intl  47.4 -122.    433    -8 A     America/Los_Angeles
2 PNC   Ponca City Rgnl      36.7  -97.1  1007    -6 A     America/Chicago    
3 CYT   Yakataga Airport     60.1 -142.     12    -9 A     America/Anchorage  
4 HCR   Holy Cross Airport   62.2 -160.     70    -9 A     America/Anchorage  
5 EVV   Evansville Regional  38.0  -87.5   418    -6 A     America/Chicago    

Si l’on veut tirer au hasard 10% des lignes de flights :

flights |> 
  slice_sample(prop = .1)

# A tibble: 33,677 × 19
    year month   day dep_time sched_dep_time dep_delay arr_time sched_arr_time
   <int> <int> <int>    <int>          <int>     <dbl>    <int>          <int>
 1  2013    12    16     1931           1800        91     2224           2102
 2  2013    12     8     1059           1100        -1     1300           1253
 3  2013     4    13     1449           1455        -6     1649           1640
 4  2013    12    18     1142           1129        13     1456           1442
 5  2013     4     5      813            815        -2     1130           1115
 6  2013    10    11       NA           1559        NA       NA           1719
 7  2013     3    31      910            915        -5     1258           1316
 8  2013     2    17     1655           1700        -5     2024           2036
 9  2013     5    28      740            740         0     1045           1055
10  2013     2     4     1448           1450        -2     1659           1645
# ℹ 33,667 more rows
# ℹ 11 more variables: arr_delay <dbl>, carrier <chr>, flight <int>,
#   tailnum <chr>, origin <chr>, dest <chr>, air_time <dbl>, distance <dbl>,
#   hour <dbl>, minute <dbl>, time_hour <dttm>

Ces fonctions sont utiles notamment pour faire de l’“échantillonnage” en tirant au hasard un certain nombre d’observations du tableau.

8.1.5 distinct()

dplyr::distinct() filtre les lignes du tableau pour ne conserver que les lignes distinctes, en supprimant toutes les lignes en double.

flights |>
  select(day, month) |>
  distinct()

# A tibble: 365 × 2
     day month
   <int> <int>
 1     1     1
 2     2     1
 3     3     1
 4     4     1
 5     5     1
 6     6     1
 7     7     1
 8     8     1
 9     9     1
10    10     1
# ℹ 355 more rows

On peut lui spécifier une liste de variables : dans ce cas, pour toutes les observations ayant des valeurs identiques pour les variables en question, dplyr::distinct() ne conservera que la première d’entre elles.

flights |>
  distinct(month, day)

# A tibble: 365 × 2
   month   day
   <int> <int>
 1     1     1
 2     1     2
 3     1     3
 4     1     4
 5     1     5
 6     1     6
 7     1     7
 8     1     8
 9     1     9
10     1    10
# ℹ 355 more rows

L’option .keep_all permet, dans l’opération précédente, de conserver l’ensemble des colonnes du tableau :

flights |>
  distinct(month, day, .keep_all = TRUE) 

# A tibble: 365 × 19
    year month   day dep_time sched_dep_time dep_delay arr_time sched_arr_time
   <int> <int> <int>    <int>          <int>     <dbl>    <int>          <int>
 1  2013     1     1      517            515         2      830            819
 2  2013     1     2       42           2359        43      518            442
 3  2013     1     3       32           2359        33      504            442
 4  2013     1     4       25           2359        26      505            442
 5  2013     1     5       14           2359        15      503            445
 6  2013     1     6       16           2359        17      451            442
 7  2013     1     7       49           2359        50      531            444
 8  2013     1     8      454            500        -6      625            648
 9  2013     1     9        2           2359         3      432            444
10  2013     1    10        3           2359         4      426            437
# ℹ 355 more rows
# ℹ 11 more variables: arr_delay <dbl>, carrier <chr>, flight <int>,
#   tailnum <chr>, origin <chr>, dest <chr>, air_time <dbl>, distance <dbl>,
#   hour <dbl>, minute <dbl>, time_hour <dttm>

8.2 Opérations sur les colonnes

8.2.1 select()

dplyr::select() permet de sélectionner des colonnes d’un tableau de données. Ainsi, si l’on veut extraire les colonnes lat et lon du tableau airports :

airports |> 
  select(lat, lon)

# A tibble: 1,458 × 2
     lat    lon
   <dbl>  <dbl>
 1  41.1  -80.6
 2  32.5  -85.7
 3  42.0  -88.1
 4  41.4  -74.4
 5  31.1  -81.4
 6  36.4  -82.2
 7  41.5  -84.5
 8  42.9  -76.8
 9  39.8  -76.6
10  48.1 -123. 
# ℹ 1,448 more rows
…
