40 Analyse factorielle – guide-R
…
Multiple Correspondence Analysis Results for individuals
 ===================================================
  Name       Description                       
1 "$coord"   "Coordinates for the individuals" 
2 "$cos2"    "Cos2 for the individuals"        
3 "$contrib" "contributions of the individuals"

Le résultat obtenu est une liste avec trois tableaux de données. Pour accéder aux coordonnées des individus, il suffit donc d’exécuter la commande ci-dessous.

as_tibble(res$coord)

# A tibble: 2,000 × 7
     Dim.1   Dim.2    Dim.3   Dim.4  Dim.5   Dim.6   Dim.7
     <dbl>   <dbl>    <dbl>   <dbl>  <dbl>   <dbl>   <dbl>
 1  0.380  -0.0481 -0.130   -0.0757 -0.554 -0.118  -0.0382
 2 -0.301  -0.512   0.0125   0.221   0.421 -0.340  -0.0402
 3  0.146  -0.261   0.0784   0.152   0.279 -0.252  -0.578 
 4 -0.842  -0.0612  0.00886  0.247  -0.232  0.149  -0.0297
 5  0.614  -0.149   0.0190  -0.0259  0.139 -0.0253 -0.0474
 6 -0.301  -0.512   0.0125   0.221   0.421 -0.340  -0.0402
 7  0.270   0.905  -0.214   -0.198  -0.267 -0.732   0.144 
 8 -0.0369  1.26   -0.0688  -0.122  -0.227 -0.150   0.146 
 9  0.167  -0.400  -0.0469   0.0425  0.282 -0.114   0.490 
10 -0.301  -0.512   0.0125   0.221   0.421 -0.340  -0.0402
# ℹ 1,990 more rows
…
