45 Analyse de séquences – guide-R
…
IND_001 IND_002 IND_003 IND_004 IND_005 
      1       2       3       1       1 

Le résultat est un vecteur numérique nommé. Les valeurs correspondent aux classes d’appartenance et les noms à l’identifiant des séquences. Cet identifiant a bien été conservé tout au long du processus car, au moment de la création de l’objet seq, nous avons soit passé cet identifiant à TraMineR::seqdef() soit utilisé guideR::long_to_seq().

Nous pouvons donc facilement faire un petit tableau de résultats avec une colonne pour la typologie obtenue et une colonne avec l’identifiant.

res <- 
  dplyr::tibble(
    id_ind = names(typo),
    typo = typo
  )
res

# A tibble: 500 × 2
   id_ind   typo
   <chr>   <int>
 1 IND_001     1
 2 IND_002     2
 3 IND_003     3
 4 IND_004     1
 5 IND_005     1
 6 IND_006     1
 7 IND_007     2
 8 IND_008     1
 9 IND_009     1
10 IND_010     1
# ℹ 490 more rows
…
